{
  "type": "service_account",
  "project_id": "evacuationrutes",
  "private_key_id": "bc8374b34a441729bd91ef314b0c6ba14f902baf",
  "private_key": "-----BEGIN PRIVATE KEY-----\nMIIEvQIBADANBgkqhkiG9w0BAQEFAASCBKcwggSjAgEAAoIBAQCcp+RTbdzjtVkc\nnTrfJeKAS9D66yAmwm4A1zCbtpDj/Vq2ZhMj714/3MrGrep6WrySLI3e7kfrzY/p\nwx0BlySM8pXbdKJjWBvgr+1tjtEom7IL8zAIvgRiR7wR9OjyS3D8pA+3abOK2IOf\nW+gDzTbuO3v0mQrR9A3566Eor5d0BoVFYgsa8jDuLZUyR/KgYrPIwFi00Nb+hv6O\ngL9a+KpzxAmUwawRfM6nYy622x4qsbBFzPvFx6YIw4f/ASZq52MyFjK+SXoxO0TF\nljRK4xYMAaOfyMfFAdQNE0qbQ/q7N4ie0sKfMzK/JDXSq8QkVz+2+qQeRlfUewuH\n1h173qJNAgMBAAECggEAI+We/vUiVDWGjXWD+4VZYS++W/kL/YW5Ik0tMMlFa1Dv\ne/No+GeN79Fez+cjX1Uyd8Zo3gg5B9IrY5QXrfkd4YRnDYos+dnDTZnSrLO4vvbq\ndi2MOLyeEY1BjdXSmU7rPaE0jsFUaIETrC0pvdFFAJM15Mc7AQBNQZMac1HFQUsv\nZRtLhKCTiMaInAwIeH1pcx4FvJ2pXrOkhl/ZyzQimhCJ4BZOzP3zWM8H5eF4C6BX\n0N4ML7WJXFCn96LPADyql/8bTxsSsQzebeA3I6dMUIorKZTzwJvvsqfeOAmz6BML\n2QO+qmK0euCFx2HXcjP2jxvpNvQMhkba9DDfg2hsIQKBgQDOlnTUAW6JFXYedEsu\nGM+Truyfj34B+IQ1GT0T27f3ajGAh2trFGKcNg3DPVh+TsELgIdtgZ8JhMgIGb46\nzEKOmxPybCg0mAnUNypY3F2qpJXYddPE+4TjrFg2MA9AmCM66nNvj2jR+ZdG4hYA\nu9xN2MpOEZR6Ux9dOLfnUKdtUQKBgQDCIBAXP8QBJgxXehrLmFebi21geYCV/s7z\nzU32mrDT7yxOjc6ODVOa1S/wX3Kv3UwRBcdvKPcZC3hNgkHt6WZQcvFjBBMkv0ZL\n+EMmMU6oRbPscYapUOVakbas4NR/vRJ7GV95jRP60nAWackaROwWnGxAAqqyjOad\n4jnkX6K2PQKBgECm+Xz3zb39B3BUeMq+XQgc8FSnNYosWkO72E+ErbgydbeBqe5i\n/NFiYUA+zJkK0INm//sXW8xAz9EpLU19az7x7XYqvxJmmnzdntUccfvbckHB7jpx\ndI9D+n9K3xsaAbyIbwP035sG/37hdn1YTYPXWsi/27XEmcY03+j2Zs9hAoGALYAY\nZWqjxWUmpWZQW4Iknqeqhl9UPVQRK+HmMTQG2FYJ+4uPa4pCG1t2tg+ZMRFcn+zL\n1wkyCaO/meM7EsmPGrImVAADgKx4jJvvGUebWSOlTXk6h/sXFwhqWdEE3b/yUfob\nf8EKetLSRN6crVSURaR6VvKJEfqmn0EEMrwbxj0CgYEAoK6PNgXBHQK4gDIEA/zY\nI8Il9XnZBdq9d0Dnn7ecO/31prf+8prbTJA8pew1ClS4HvEhFvOwqYSU04cf4+mr\ndT33S7p14O/ZPaQVUBF7UW4PdHAz6ZGgvV3B9gvZqo4YSF2EtArjo1ODv+hJOrX3\n3dRcxRQ98b5ndGRVcgd7H0I=\n-----END PRIVATE KEY-----\n",
  "client_email": "firebase-adminsdk-2bwha@evacuationrutes.iam.gserviceaccount.com",
  "client_id": "115764757492058948320",
  "auth_uri": "https://accounts.google.com/o/oauth2/auth",
  "token_uri": "https://oauth2.googleapis.com/token",
  "auth_provider_x509_cert_url": "https://www.googleapis.com/oauth2/v1/certs",
  "client_x509_cert_url": "https://www.googleapis.com/robot/v1/metadata/x509/firebase-adminsdk-2bwha%40evacuationrutes.iam.gserviceaccount.com",
  "universe_domain": "googleapis.com"
}
